10:28:36 326	瑞芯微开发工具 v2.5.4.0 start run
10:42:18 592	Layer<3-5>:测试设备开始
10:42:18 618	Layer<3-5>:测试设备成功
10:42:18 634	<LAYER 3-5> ERROR:ReadCapability-->RKU_ReadCapability failed,err(-8)
10:42:18 642	Layer<3-5>:校验芯片开始
10:42:18 651	Layer<3-5>:校验芯片成功
10:42:18 659	Layer<3-5>:获取FlashInfo开始
10:42:18 665	<LAYER 3-5> INFO:FlashInfo: 00 00 E9 00 00 04 04 00 28 00 01
10:42:18 670	<LAYER 3-5> INFO:GetFlashInfo-->Emmc storage.
10:42:18 676	Layer<3-5>:获取FlashInfo成功
10:42:18 683	Layer<3-5>:准备IDB开始
10:42:18 689	<LAYER 3-5> INFO:CS(1)		(7456MB)		(SAMSUNG)
10:42:18 716	Layer<3-5>:准备IDB成功
10:42:18 724	Layer<3-5>:下载IDB开始
10:42:18 876	Layer<3-5>:下载IDB成功
10:42:18 884	Layer<3-5>:重启设备开始
10:42:19 891	Layer<3-5>:重启设备成功
10:42:19 898	Layer<3-5>:等待Loader开始
10:42:20 327	Layer<3-5>:等待Loader成功
10:42:20 333	Layer<3-5>:测试设备开始
10:42:20 339	Layer<3-5>:测试设备成功
10:42:20 345	Layer<3-5>:下载固件开始
10:42:20 353	<LAYER 3-5> INFO:FlashInfo: 00 00 E9 00 00 04 04 00 28 00 01
10:42:20 358	<LAYER 3-5> INFO:GetFlashInfo-->Emmc storage.
10:42:20 363	<LAYER 3-5> INFO:Start download image,total=2709824280,band=64,DirectLBA=0,First4Access=0,Gpt=0
10:42:20 398	<LAYER 3-5> INFO:Start to download trust,offset=0x4000,size=4194304
10:42:20 603	<LAYER 3-5> INFO:Start to download uboot,offset=0x2000,size=4194304
10:42:20 825	<LAYER 3-5> INFO:Start to download misc,offset=0x6000,size=49152
10:42:20 842	<LAYER 3-5> INFO:Start to download resource,offset=0x8000,size=252928
10:42:20 866	<LAYER 3-5> INFO:Start to download kernel,offset=0x10000,size=7874228
10:42:21 302	<LAYER 3-5> INFO:Start to download boot,offset=0x20000,size=1383600
10:42:21 377	<LAYER 3-5> INFO:Start to download recovery,offset=0x30000,size=7514236
10:42:21 803	<LAYER 3-5> INFO:Start to download system,offset=0x18a000,size=2147483648
10:43:00 146	<LAYER 3-5> INFO:Start to download vendor,offset=0x592000,size=268435456
10:43:08 177	<LAYER 3-5> INFO:Start to download oem,offset=0x612000,size=268435456
10:43:08 269	Layer<3-5>:下载固件成功
10:43:08 278	Layer<3-5>:重启设备开始
10:43:09 289	Layer<3-5>:重启设备成功
